Product Name,1 +,3+,6+,10+,14+,17+,
Canon 50mm f1.8,300,250,200,175,150,0,1
Canon EF-S 55-250 f/4-5.6 IS,350,325,300,275,250,0,1
Canon EF 100-400mm f/4.5-5.6L IS USM,1000,950,900,850,800,0,1
Canon EF 300mm f/4L IS USM,800,750,700,650,600,0,1
Tokina 11-16 f/2.8 (Canon Mount),600,550,500,450,400,0,1
Canon 1.4x TC II,375,275,225,200,175,0,1
Canon EF 35mm f2.0,350,300,250,200,150,0,1
Canon 40D Body,500,450,400,350,300,0,1
Tamron AF 28-75mm f/2.8 (Canon Mount),,,,,,,0
Canon 70-200 f2.8 L IS II USM,1400,1350,1300,1250,1200,0,1
Canon 100 f2.8 Macro,550,500,450,400,350,0,1
Sigma 8-16 (Canon Mount),650,600,550,500,450,0,1
Nikon AF-S VR 105mm f/2.8G IF-ED,650,600,550,500,450,0,1
Nikon 55-200mm VR AF-S f/4-5.6G ED,250,225,200,175,150,0,1
Nikon 50 mm f1.8,300,275,250,225,200,0,1
Sigma 150-500 for Nikon,750,700,650,600,550,0,1
Nikon 1 V1,,,,,,,0
FT-1 Mount Adapter,250,200,150,100,50,0,1
Tokina 11-16 f/2.8 (NIKON Mount),600,550,500,450,400,0,1
Manfrotto 055XPROB,300,250,200,150,100,0,1
Manfrotto 496RC2 Ball Head,200,175,150,125,100,0,1
Manfrotto 681B Monopod,200,175,150,125,100,0,1
Manfrotto 488RCO,225,200,175,150,125,0,1
"Mirrorless Sony Nex-3,18-55 Lens",500,450,400,350,300,0,1
Nikon 10 X 50 Binocular,250,225,200,175,150,0,1
Primos Truth Cam 35 Camera,,,,,,0,0
Stealth Cam Prowler XT 8Mp,750,700,650,600,550,0,1
HOYA 77mm (NDX8) ND Filter,250,225,200,175,150,0,1
HOYA 77mm CP Filter,250,225,200,175,150,0,1
Lowepro Computrekker AW PLUS,,,,,,0,0
Lowepro Fastpack 350 Backpack,,,,,,0,1
Lens Trekker 600 AW II Lens case,,,,,,0,0
D-Lite-it 4 To Go,1000,950,900,850,800,0,1
Canon 580 EX II flash,,,,,,0,0
Nikon SB-700 Flash,,,,,,0,0
Nikon 70-300mm f/4.5-5.6G IF-ED VR AF-S,500,450,400,350,300,0,1
1 NIKKOR 10mm f/2.8,,,,,,0,0
Nikon 1 SB-N5 Speedlight,,,,,,0,0
Canon EF 500mm f/4L IS USM Lens,2500,2250,2000,1750,1500,0,1
Nikon AF-S(DX) 18-300mm f/3.5-5.6G ED VR,850,800,750,700,650,0,1
Nikon AF-S 24-85mm f/3.5-4.5G ED VR,500,450,400,350,300,0,1
Nikon AF-S 28mm f/1.8G,600,550,500,450,400,0,1
Nikon AF-S 85mm f/1.8G,500,450,400,350,300,0,1
Joby GP3 Gorillapod,200,175,150,125,100,0,1
Joby BH1 Ball Head,200,175,150,125,100,0,1
Flashpoint LCD Viewfinder 3X,,,,,,0,0
Movie Kit Shoulder Rig Mount,500,450,400,350,300,0,1
Shoulder Support Pad,200,175,150,125,100,0,1
"Fotodiox 8""x12"" Softbox",200,175,150,125,100,0,1
Canon EF 24-105mm f/4L IS USM,700,650,600,550,500,0,1
Nikon D800 Body (FX),1500,1400,1300,1200,1100,0,1
Nikon D7000 Body,,,,,,0,0
Canon EOS-1D Mark III (Body),1750,1500,1250,1000,750,0,1
Canon 500D Body,550,500,450,400,350,0,1
Canon EF-S 15-85mm f/3.5-5.6 IS USM,650,600,550,500,450,0,1
Speedlite 600EX-RT,600,550,500,450,400,0,1
Canon EF 16-35mm f/2.8L II USM,1000,950,900,850,800,0,1
Canon Extender EF 1.4X III,400,350,300,250,200,0,1
Nikon D3200 Body,,,,,,0,0
Nikon D40 Body,300,275,250,225,200,0,1
Nikon AF-S DX 35mm f/1.8G,300,250,200,150,100,0,1
Nikon AF-S DX 18-55mm f/3.5-5.6G VR,250,225,200,175,150,0,1
Quadlux Light (2) With Softbox,800,750,700,650,600,0,1
Photo Box (LIGHT TENT)30 X 40 X 40,250,225,200,175,150,0,1
SanDisk 16GB Extreme Pro CF,200,175,150,125,100,0,1
SanDisk 32GB Extreme Pro CF,250,225,200,175,150,0,1
SanDisk Extreme Pro 16 GB SDHC,150,125,100,75,50,0,1
SanDisk Extreme Pro 32 GB SDHC,250,225,200,175,150,0,1
Nikon EN-EL15 Battery,150,125,100,75,50,0,1
Tripod Dolly,,,,,,0,0
HERO-3 Silver Edition,500,475,450,425,400,0,1
Nikon AF-S 300mm f/4D IF-ED,800,750,700,650,600,0,1
Nikon AF-S 50mm f/1.8G,350,325,300,275,250,0,1
Nikon AF-S Teleconverter TC-14E II/14E,250,225,200,175,150,0,1
Canon EF 400mm f/5.6L USM,800,750,700,650,600,0,1
Canon EF 17-40mm f/4L USM,600,550,500,450,400,0,1
Canon EF 50mm f/1.4 USM,500,450,400,350,300,0,1
Canon EF 85mm f/1.8 USM,450,400,350,300,250,0,1
Canon EF 100mm f/2.8L Macro IS USM,750,700,650,600,550,0,1
Canon EOS 6D (Full Frame),1400,1350,1300,1250,1200,0,1
Canon 60D,,,,,,0,0
Nikon 70-200mm f/4G ED VR,900,850,800,750,700,0,1
Canon EOS 5D Mark III (Full Frame),1900,1800,1700,1600,1500,0,1
Canon LP-E6 Battery,150,125,100,75,50,0,1
Pro Fluid Video Mini Head,300,275,250,225,200,0,1
"Carl Zeiss Planar T* 1,4/50 (ZE)",800,750,700,650,600,0,1
"Carl Zeiss Distagon T* 1,4/35",1600,1500,1400,1300,1200,0,1
Edelkrone Slider Plus,,,,,,0,0
Trilux Fluorescent Light (2),500,450,400,350,300,0,1
Manfrotto 486RC2 Ball Head,200,175,150,125,100,0,1
Carl Zeiss Makro-Planar T* 2/100,,,,,,0,0
Canon EF 24-70mm f/2.8L II USM,1400,1350,1300,1250,1200,0,1
GITZO GT2542LS,550,500,450,400,350,0,1
Wimberley WH-200 Gimbal Tripod Head II,500,450,400,350,300,0,1
Glidecam HD-4000 with Manfrotto 577 Rapid Connect Adapter,1300,1200,1100,1000,900,0,1
Manfrotto 682 B,,,,,,0,0
Canon 300mm f/2.8L IS USM,2000,1750,1500,1250,1000,0,1
Canon EOS 7D SLR (BODY Only),1000,950,900,850,800,0,1
Canon BG-E7 Battery Grip,,,,,,0,0
Reflector,250,225,200,175,150,0,1
Suction Cup,500,450,400,350,300,0,1
HERO3 Rechargeable Battery,150,125,100,75,50,0,1
Manfrotto 577 Rapid Connect Adapter,,,,,,0,0
AF-S NIKKOR 80-400mm f/4.5-5.6G ED VR,1600,1500,1400,1300,1200,0,1
Canon TS-E 24mm lens,900,850,800,750,700,0,1
FocusONE PRO,700,650,600,550,500,0,1
LIGHTWEIGHT PROFESSIONAL Rig,1250,1150,1050,950,850,0,1
Zoom H4n Handy Portable Digital Recorder,600,550,500,450,400,0,1
Rode NTG2 Condenser Shotgun Microphone,300,275,250,225,200,0,1
Better Beamer FX-3,300,275,250,225,200,0,1
Better Beamer FX-6,300,275,250,225,200,0,1
Nikon AW110,650,600,550,500,450,0,1
8mm F3.5 EX DG Circular Fisheye,,,,,,0,0
Sony HDR-CX280,550,500,450,400,350,0,1
Tamron AF 90mm f/2.8 (Nikon Mount),400,350,300,250,200,0,1
Speedlite 270EX II,300,250,200,150,100,0,1
Speedlite 430EX II,450,400,350,300,250,0,1
Sigma 150-500 for Canon,750,700,650,600,550,0,1
PocketWizard Plus X,,,,,,0,0
7 inch field monitor,,,,,,0,0
Canon Extender EF 2X III,450,400,350,300,250,0,1
AF-S NIKKOR 600mm f/4G ED VR,,,,,,0,0
Black Magic Cinema Camera,,,,,,0,1
Switronix Powerbase-70 Battery Pack,750,700,650,600,550,0,1
SSD 240 GB,750,700,650,600,550,0,1
Amaran AL-528w,1000,950,900,850,800,0,1
Grid Light,,,,,,0,0
Flash Light Soft Box,250,225,200,175,150,0,1
Mini Skater,500,450,400,350,300,0,1
Radial Dolly,500,450,400,350,300,0,1
Radial Dolly,,,,,,0,0
GoPro Extender Pole,150,125,100,75,50,0,1
Powerpak Trigger,600,575,550,525,500,0,1
EF 50mm f/1.2L USM,1000,950,900,850,800,0,1
EOS 70D (Body),950,900,850,800,750,0,1
Nikon 24-70mm f/2.8G ED AF-S,1000,950,900,850,800,0,1
Canon EF 135mm f/2L USM Lens,1000,950,900,850,800,0,1
GoPro HERO3+ Black Edition Camera,,,,,,0,0
Nikon D7100,800,750,700,650,600,0,1
SanDisk 32GB Extreme Pro CompactFlash Memory Card (160MB/s),350,325,300,275,250,0,1
Lambency Flash Diffuser,100,75,50,50,25,0,1
V-Screen VS-1,600,550,500,450,400,0,1
Speedlite Package,300,275,250,225,200,0,1
SliderPlus V2 Medium,1300,1200,1100,1000,900,0,1
Canon EF 500mm f/4L IS II USM,4000,3750,3500,3250,3000,0,1
Tamron SP 150-600mm f/5-6.3 Di VC USD Lens for Canon,1000,950,900,850,800,0,1
EOS-1D X,3500,3250,3000,2750,2500,0,1
Canon EF 200-400mm f/4L IS USM Lens with 1.4x Extender,4250,4000,3750,3500,3250,0,1
Nikon D750 Body (FX),1500,1450,1400,1350,1300,0,1
R-300 Ring Light,1000,900,800,700,600,0,1
GoPro Jaws Flex Clamp Mount,200,175,150,125,100,0,1
Clamp Mount for GoPro HERO Cameras,200,175,150,125,100,0,1
Tiffen 82mm Variable ND Filter,250,225,200,175,150,0,1
Rode VMGO Video Mic GO,300,275,250,225,200,0,1
Canon ST-E3-RT Speedlite Transmitter,450,400,350,300,250,0,1
GoPro Headstrap and Quickclip Mount,200,175,150,125,100,0,1
Chest Mount Harness,200,175,150,125,100,0,1
GoPro Tripod Mount,150,125,100,75,50,0,1
Doublesize Battery,200,175,150,125,100,0,1
Canon EF 24mm f/2.8,600,550,500,450,400,0,1
Canon 5D Mark II,1500,1400,1300,1200,1100,0,1
Canon EF-S 17-85mm f/4-5.6,500,450,400,350,300,0,1
Canon EF 40mm f/2.8 STM Lens,350,325,300,275,250,0,1
Nikon Speedlight SB-910,650,600,550,500,450,0,1
Tamron SP 150-600mm f/5-6.3 Di VC USD Lens for Nikon,1000,950,900,850,800,0,1
Tokina AT-X 16-28mm f/2.8 Pro FX Lens for Nikon,800,750,700,650,600,0,1
Better Beamer FX-6,,,,,,0,0
Canon EF 16-35mm f/4L IS USM Lens,750,700,650,600,550,0,1
Elinchrom Snoot with Grid,150,125,100,75,50,0,1
Elincheom -Rotolux Deep Octa 100,650,600,550,500,450,0,1
GoPro Hero,,,,,,0,0
Reflector Background,,,,,,0,0
Black & White Umbrella,250,225,200,175,150,0,1
Beauty Dish,350,325,300,275,250,0,1
Sennheiser EW112P-G3,1000,900,800,700,600,0,1
SB-500 AF Speedlight,500,450,400,350,300,0,1
GoPro HERO4 Black,800,750,700,650,600,0,1
Canon EF-S 18-135mm f/3.5-5.6 IS STM Lens,500,450,400,350,300,0,1
Canon EOS 7D Mark II,1500,1400,1300,1200,1100,0,1
Manfrotto 322RC2 Grip Action Ball Head,250,225,200,175,150,0,1
Sony Alpha a7S with Battery pack,2500,2400,2300,2200,2100,0,1
Mini Jib Arm With Video Tripod,1000,900,800,700,600,0,1
FY-G3Ultra 3-Axis Handheld Gimbal,600,500,400,300,200,0,1
Canon EF 100-400mm f/4.5-5.6L IS II USM,1500,1400,1300,1200,1100,0,1
GoPro Suction Cup Mount,,,,,,0,0
Sekonic L-758DR DigitalMaster Flash Meter,600,550,500,450,400,0,1
Canon EF 8-15mm f/4L Fisheye USM Lens,1000,950,900,850,800,0,1
Canon EF 85mm f/1.2L II USM Lens,1500,1400,1300,1200,1100,0,1
Nikon AF-S 14-24mm f/2.8G ED AF Lens,1100,1000,900,800,700,0,1
Nikon AF-S TC-14E III,400,350,300,250,200,0,1
Nikon AF-S Nikkor 50mm f/1.4G,600,500,400,300,200,0,1
Nikon AF-S 70-200mm f/2.8G ED VR II Lens,1500,1400,1300,1200,1100,0,1
FRX Master Kit 600,,,,,,0,0
Amaran 900 LED Light,1250,1150,1050,950,850,0,1
Nikon AF-S DX NIKKOR 18-140mm f/3.5-5.6G ED VR Lens,500,450,400,350,300,0,1
Nikon AF-S NIKKOR 300mm f/4E PF ED VR Lens,1300,1200,1100,1000,900,0,1
Nikon AF-S DX NIKKOR 55-200mm f/4-5.6G ED VR II Lens,350,300,250,200,150,0,1
"Atomos Shogun 4K HDMI/12G-SDI Recorder and 7"" Monitor",3000,2750,2500,2250,2000,0,1
"Nikon D5500 DSLR Camera (Body Only, Black)",700,650,600,550,500,0,1
Edelkrone Flex Tilt Head,400,375,350,325,300,0,1
Edelkrone Flex Tilt Head,,,,,,0,0
Sigma 150-600mm f/5-6.3 DG OS HSM Sports (Canon Mount),1600,1500,1400,1300,1200,0,1
Nikon D7200 DSLR Camera (Body Only),1000,900,800,700,600,0,1
MVH500AH Fluid Video Head,400,350,300,250,200,0,1
Zoom H6 Handy Recorder,1000,900,800,700,600,0,1
Sigma 35mm f/1.4 DG HSM Art Lens for Canon DSLR Cameras,800,750,700,650,600,0,1
Sigma 24mm f/1.4 DG HSM Art Lens for Canon EF,800,750,700,650,600,0,1
SanDisk 64GB Extreme Pro UHS-I SDXC U3 Memory Card (Class 10),400,375,350,325,300,0,1
Lexar 128GB Professional 1066x CF Memory Card,750,700,650,600,550,0,1
Zeiss Distagon T* 15mm f/2.8 ZE Lens for Canon EF Mount,2000,1900,1800,1700,1600,0,1
Zeiss Telephoto 85mm f/1.4 ZE Planar T* For Canon Mount,1500,1400,1300,1200,1100,0,1
Zeiss Makro-Planar T* 100mm f/2 ZE Lens for Canon EF Mount,1500,1400,1300,1200,1100,0,1
Zeiss 135mm f/2 Apo Sonnar T* ZE Lens for Canon EF Mount,2500,2400,2300,2200,2100,0,1
Manfrotto MT055XPRO3 Aluminum Tripod,400,350,300,250,200,0,1
Quadlux Light,600,550,500,450,400,0,1
